/Users/krishnabadveli/Ebay/src/main/java/pageObjectModel/HomePage.java
/Users/krishnabadveli/Ebay/src/main/java/pageObjectModel/CartPage.java
/Users/krishnabadveli/Ebay/src/main/java/pageObjectModel/DriverInitializer.java
